…
The example peptide data looks like this

``` r
pep_dat
#> # A tibble: 23,760 x 4
#>      peptide label_chr label_num data_type
#>        <chr>     <chr>     <int>     <chr>
#>  1 LLTDAQRIV        WB         1     train
#>  2 LMAFYLYEV        SB         2     train
#>  3 VMSPITLPT        WB         1      test
#>  4 SLHLTNCFV        WB         1     train
#>  5 RQFTCMIAV        WB         1     train
#>  6 HQRLAPTMP        NB         0     train
#>  7 FMNGHTHIA        SB         2     train
#>  8 KINPYFSGA        WB         1     train
#>  9 WLLIFHHCP        NB         0     train
#> 10 NIWLAIIEL        WB         1     train
#> # ... with 23,750 more rows
```
…
